module github.com/hyperledger/fabric

go 1.14

// develop
replace github.com/hyperledger/fabric => ./

replace github.com/hyperledger/fabric-protos-go => github.com/scientificideas/fabric-protos-go v0.0.0-20211129231519-47ba956498d8

replace github.com/hyperledger/fabric-config => github.com/scientificideas/fabric-config v0.1.1-0.20211022173806-2db6d2f11301

// https://github.com/golang/go/issues/34610
replace golang.org/x/sys => golang.org/x/sys v0.0.0-20190920190810-ef0ce1748380

require (
	code.cloudfoundry.org/clock v1.0.0
	github.com/DataDog/zstd v1.4.0 // indirect
	github.com/Knetic/govaluate v3.0.0+incompatible
	github.com/Microsoft/hcsshim v0.8.6 // indirect
	github.com/Shopify/sarama v1.20.1
	github.com/Shopify/toxiproxy v2.1.4+incompatible // indirect
	github.com/SmartBFT-Go/consensus v0.0.0-20220105122543-57ed2ce2c73b
	github.com/VictoriaMetrics/fastcache v1.5.7
	github.com/VividCortex/gohistogram v1.0.0 // indirect
	github.com/containerd/continuity v0.0.0-20190426062206-aaeac12a7ffc // indirect
	github.com/coreos/go-systemd v0.0.0-20190620071333-e64a0ec8b42a // indirect
	github.com/coreos/pkg v0.0.0-20180108230652-97fdf19511ea // indirect
	github.com/davecgh/go-spew v1.1.1
	github.com/docker/distribution v2.7.1+incompatible // indirect
	github.com/docker/docker v17.12.0-ce-rc1.0.20190628135806-70f67c6240bb+incompatible // indirect
	github.com/dustin/go-humanize v1.0.0 // indirect
	github.com/eapache/go-resiliency v1.2.0 // indirect
	github.com/eapache/go-xerial-snappy v0.0.0-20180814174437-776d5712da21 // indirect
	github.com/eapache/queue v1.1.0 // indirect
	github.com/frankban/quicktest v1.9.0 // indirect
	github.com/fsouza/go-dockerclient v1.4.1
	github.com/go-kit/kit v0.8.0
	github.com/golang/protobuf v1.5.2
	github.com/golang/snappy v0.0.2 // indirect
	github.com/gorilla/handlers v1.4.0
	github.com/gorilla/mux v1.7.2
	github.com/grpc-ecosystem/go-grpc-middleware v1.1.0
	github.com/hashicorp/go-version v1.2.0
	github.com/hashicorp/hcl v1.0.0 // indirect
	github.com/hyperledger/fabric-amcl v0.0.0-20200128223036-d1aa2665426a
	github.com/hyperledger/fabric-chaincode-go v0.0.0-20200128192331-2d899240a7ed
	github.com/hyperledger/fabric-config v0.0.0-00010101000000-000000000000
	github.com/hyperledger/fabric-lib-go v1.0.0
	github.com/hyperledger/fabric-protos-go v0.0.0-20190919234611-2a87503ac7c9
	github.com/konsorten/go-windows-terminal-sequences v1.0.2 // indirect
	github.com/kr/pretty v0.2.0
	github.com/magiconair/properties v1.8.1 // indirect
	github.com/mattn/go-runewidth v0.0.4 // indirect
	github.com/miekg/pkcs11 v1.0.3
	github.com/mitchellh/mapstructure v1.3.2
	github.com/onsi/ginkgo v1.8.0
	github.com/onsi/gomega v1.9.0
	github.com/opencontainers/runc v1.0.0-rc8 // indirect
	github.com/pelletier/go-toml v1.8.0 // indirect
	github.com/pierrec/lz4 v2.5.0+incompatible // indirect
	github.com/pkg/errors v0.9.1
	github.com/prometheus/client_golang v1.1.0
	github.com/rcrowley/go-metrics v0.0.0-20181016184325-3113b8401b8a
	github.com/spf13/afero v1.3.1 // indirect
	github.com/spf13/cast v1.3.1 // indirect
	github.com/spf13/cobra v0.0.3
	github.com/spf13/jwalterweatherman v1.1.0 // indirect
	github.com/spf13/pflag v1.0.5
	github.com/spf13/viper v1.1.1
	github.com/stretchr/testify v1.7.0
	github.com/sykesm/zap-logfmt v0.0.2
	github.com/syndtr/goleveldb v1.0.1-0.20190625010220-02440ea7a285
	github.com/tedsuo/ifrit v0.0.0-20180802180643-bea94bb476cc
	github.com/willf/bitset v1.1.10
	go.etcd.io/etcd v0.5.0-alpha.5.0.20181228115726-23731bf9ba55
	go.uber.org/zap v1.19.0
	golang.org/x/crypto v0.0.0-20200622213623-75b288015ac9
	golang.org/x/tools v0.0.0-20201201210846-92771a23d8e3
	google.golang.org/grpc v1.33.2
	gopkg.in/alecthomas/kingpin.v2 v2.2.6
	gopkg.in/cheggaaa/pb.v1 v1.0.28
	gopkg.in/yaml.v2 v2.3.0
)
